<?xml version="1.0" encoding="UTF-8" standalone="no"?>
<!-- Created with Inkscape (http://www.inkscape.org/) -->

<svg
   xmlns:dc="http://purl.org/dc/elements/1.1/"
   xmlns:cc="http://creativecommons.org/ns#"
   xmlns:rdf="http://www.w3.org/1999/02/22-rdf-syntax-ns#"
   xmlns:svg="http://www.w3.org/2000/svg"
   xmlns="http://www.w3.org/2000/svg"
   xmlns:sodipodi="http://sodipodi.sourceforge.net/DTD/sodipodi-0.dtd"
   xmlns:inkscape="http://www.inkscape.org/namespaces/inkscape"
   width="185"
   height="75"
   viewBox="0 0 184.99999 75.000004"
   id="svg2"
   version="1.1"
   inkscape:version="0.91 r13725"
   sodipodi:docname="double_indirection.svg">
  <defs
     id="defs4" />
  <sodipodi:namedview
     id="base"
     pagecolor="#ffffff"
     bordercolor="#666666"
     borderopacity="1.0"
     inkscape:pageopacity="0.0"
     inkscape:pageshadow="2"
     inkscape:zoom="7.919596"
     inkscape:cx="71.765986"
     inkscape:cy="36.23006"
     inkscape:document-units="px"
     inkscape:current-layer="layer1"
     showgrid="true"
     inkscape:snap-intersection-paths="true"
     inkscape:snap-smooth-nodes="true"
     inkscape:object-nodes="true"
     units="px"
     inkscape:window-width="1920"
     inkscape:window-height="911"
     inkscape:window-x="0"
     inkscape:window-y="28"
     inkscape:window-maximized="1">
    <inkscape:grid
       type="xygrid"
       id="grid4136" />
  </sodipodi:namedview>
  <metadata
     id="metadata7">
    <rdf:RDF>
      <cc:Work
         rdf:about="">
        <dc:format>image/svg+xml</dc:format>
        <dc:type
           rdf:resource="http://purl.org/dc/dcmitype/StillImage" />
        <dc:title></dc:title>
      </cc:Work>
    </rdf:RDF>
  </metadata>
  <g
     inkscape:label="Layer 1"
     inkscape:groupmode="layer"
     id="layer1"
     transform="translate(0,-977.36217)">
    <rect
       style="fill:none;fill-opacity:1;stroke:#000000;stroke-width:0.70000006;stroke-linecap:round;stroke-miterlimit:4;stroke-dasharray:none;stroke-dashoffset:0;stroke-opacity:1"
       id="rect4138"
       width="30"
       height="40"
       x="10"
       y="1007.3622" />
    <rect
       style="fill:#000000;fill-opacity:1;stroke:#000000;stroke-width:1.5;stroke-linecap:round;stroke-miterlimit:4;stroke-dasharray:none;stroke-dashoffset:0;stroke-opacity:1"
       id="rect4140"
       width="20"
       height="5"
       x="15"
       y="1012.3622" />
    <rect
       style="fill:#000000;fill-opacity:1;stroke:#000000;stroke-width:1.5;stroke-linecap:round;stroke-miterlimit:4;stroke-dasharray:none;stroke-dashoffset:0;stroke-opacity:1"
       id="rect4140-6"
       width="20"
       height="5"
       x="55"
       y="997.36218" />
    <g
       id="g4146">
      <path
         inkscape:connector-curvature="0"
         id="path4142"
         d="m 36,1014.3622 10.364456,-6.546 L 55,1002.3622"
         style="fill:none;fill-rule:evenodd;stroke:#000000;stroke-width:0.70000006;stroke-linecap:round;stroke-linejoin:miter;stroke-opacity:1;stroke-miterlimit:4;stroke-dasharray:none"
         sodipodi:nodetypes="ccc" />
      <path
         sodipodi:nodetypes="ccc"
         inkscape:connector-curvature="0"
         id="path4144"
         d="M 49.861359,1002.4885 55,1002.3622 l -1.704632,4.6843"
         style="fill:none;fill-rule:evenodd;stroke:#000000;stroke-width:0.70000006;stroke-linecap:round;stroke-linejoin:round;stroke-opacity:1;stroke-miterlimit:4;stroke-dasharray:none" />
      <g
         transform="matrix(1,0,0,-1,0.138641,1999.8507)"
         id="g4198-8">
        <path
           style="fill:none;fill-rule:evenodd;stroke:#000000;stroke-width:0.70000006;stroke-linecap:round;stroke-linejoin:round;stroke-opacity:1;stroke-miterlimit:4;stroke-dasharray:none"
           d="M 89.861359,986.4885 95,986.3622 l -1.704632,4.6843"
           id="path4144-0-9"
           inkscape:connector-curvature="0"
           sodipodi:nodetypes="ccc" />
        <path
           style="fill:none;fill-rule:evenodd;stroke:#000000;stroke-width:0.70000006;stroke-linecap:round;stroke-linejoin:miter;stroke-opacity:1;stroke-miterlimit:4;stroke-dasharray:none"
           d="m 75.861348,998.48853 19,-12"
           id="path4142-4-0-6"
           inkscape:connector-curvature="0" />
      </g>
      <path
         inkscape:connector-curvature="0"
         id="path4142-3"
         d="m 75.999989,998.36217 10.364456,-6.546 8.635545,-5.454"
         style="fill:none;fill-rule:evenodd;stroke:#000000;stroke-width:0.70000006;stroke-linecap:round;stroke-linejoin:miter;stroke-opacity:1;stroke-miterlimit:4;stroke-dasharray:none"
         sodipodi:nodetypes="ccc" />
      <path
         sodipodi:nodetypes="ccc"
         inkscape:connector-curvature="0"
         id="path4144-6"
         d="m 89.861348,986.48847 5.138642,-0.1263 -1.704632,4.6843"
         style="fill:none;fill-rule:evenodd;stroke:#000000;stroke-width:0.70000006;stroke-linecap:round;stroke-linejoin:round;stroke-opacity:1;stroke-miterlimit:4;stroke-dasharray:none" />
    </g>
    <text
       xml:space="preserve"
       style="font-style:normal;font-weight:normal;font-size:12.5px;line-height:125%;font-family:sans-serif;letter-spacing:0px;word-spacing:0px;fill:#0075c0;fill-opacity:1;stroke:none;stroke-width:1px;stroke-linecap:butt;stroke-linejoin:miter;stroke-opacity:1;"
       x="100"
       y="1017.3622"
       id="text4227"
       sodipodi:linespacing="125%"><tspan
         sodipodi:role="line"
         id="tspan4229"
         x="100"
         y="1017.3622"
         style="font-size:10px;fill:#000000;fill-opacity:1;-inkscape-font-specification:'Linux Biolinum O';font-family:'Linux Biolinum O';font-weight:normal;font-style:normal;font-stretch:normal;font-variant:normal">nullptr</tspan></text>
    <text
       xml:space="preserve"
       style="font-style:normal;font-weight:normal;font-size:12.5px;line-height:125%;font-family:sans-serif;letter-spacing:0px;word-spacing:0px;fill:#0075c0;fill-opacity:1;stroke:none;stroke-width:1px;stroke-linecap:butt;stroke-linejoin:miter;stroke-opacity:1;"
       x="99.10714"
       y="987.7193"
       id="text4227-3"
       sodipodi:linespacing="125%"><tspan
         sodipodi:role="line"
         id="tspan4229-2"
         x="99.10714"
         y="987.7193"
         style="font-size:10px;fill:#000000;fill-opacity:1;-inkscape-font-specification:'Linux Biolinum O';font-family:'Linux Biolinum O';font-weight:normal;font-style:normal;font-stretch:normal;font-variant:normal">addend &lt;&lt; *(...</tspan></text>
    <g
       id="g4255"
       style="stroke:#0075c0;stroke-width:1.70000005;stroke-miterlimit:4;stroke-dasharray:none;stroke-opacity:1"
       transform="translate(4,-0.99999528)">
      <path
         sodipodi:nodetypes="cc"
         inkscape:connector-curvature="0"
         id="path4251"
         d="m 82,1010.3622 c 6.370678,-5.7765 7.190441,-11.7477 0,-18"
         style="fill:none;fill-rule:evenodd;stroke:#0075c0;stroke-width:1.70000005;stroke-linecap:round;stroke-linejoin:miter;stroke-miterlimit:4;stroke-dasharray:none;stroke-opacity:1" />
      <path
         sodipodi:nodetypes="ccc"
         inkscape:connector-curvature="0"
         id="path4253"
         d="m 82,996.3622 0,-4 4,0"
         style="fill:none;fill-rule:evenodd;stroke:#0075c0;stroke-width:1.70000005;stroke-linecap:round;stroke-linejoin:round;stroke-miterlimit:4;stroke-dasharray:none;stroke-opacity:1" />
    </g>
    <text
       xml:space="preserve"
       style="font-style:normal;font-weight:normal;font-size:12.5px;line-height:125%;font-family:sans-serif;letter-spacing:0px;word-spacing:0px;fill:#000000;fill-opacity:1;stroke:none;stroke-width:1px;stroke-linecap:butt;stroke-linejoin:miter;stroke-opacity:1;"
       x="16.229603"
       y="1003.5261"
       id="text4227-9"
       sodipodi:linespacing="125%"><tspan
         sodipodi:role="line"
         id="tspan4229-27"
         x="16.229603"
         y="1003.5261"
         style="font-style:normal;font-variant:normal;font-weight:normal;font-stretch:normal;font-size:10px;font-family:'Linux Biolinum O';-inkscape-font-specification:'Linux Biolinum O';fill:#000000;fill-opacity:1;">rule</tspan></text>
    <rect
       style="fill:#000000;fill-opacity:1;stroke:#000000;stroke-width:1.5;stroke-linecap:round;stroke-miterlimit:4;stroke-dasharray:none;stroke-dashoffset:0;stroke-opacity:1"
       id="rect4140-6-7"
       width="20.000002"
       height="5.0000005"
       x="114.99999"
       y="1042.3622" />
    <text
       xml:space="preserve"
       style="font-style:normal;font-weight:normal;font-size:12.5px;line-height:125%;font-family:sans-serif;letter-spacing:0px;word-spacing:0px;fill:#0075c0;fill-opacity:1;stroke:none;stroke-width:1px;stroke-linecap:butt;stroke-linejoin:miter;stroke-opacity:1"
       x="136.5276"
       y="1046.5414"
       id="text4227-5"
       sodipodi:linespacing="125%"><tspan
         sodipodi:role="line"
         id="tspan4229-3"
         x="136.5276"
         y="1046.5414"
         style="font-size:7.50000048px;fill:#000000;fill-opacity:1;-inkscape-font-specification:'Linux Biolinum O';font-family:'Linux Biolinum O';font-weight:normal;font-style:normal;font-stretch:normal;font-variant:normal">: shared_ptr</tspan></text>
  </g>
</svg>
