<?xml version="1.0" encoding="UTF-8" standalone="no"?>
<!DOCTYPE svg PUBLIC "-//W3C//DTD SVG 1.1//EN"
 "http://www.w3.org/Graphics/SVG/1.1/DTD/svg11.dtd">
<!-- Generated by graphviz version 2.40.1 (20161225.0304)
 -->
<!-- Title: G Pages: 1 -->
<svg width="595pt" height="508pt"
 viewBox="0.00 0.00 595.20 508.13" xmlns="http://www.w3.org/2000/svg" xmlns:xlink="http://www.w3.org/1999/xlink">
<g id="graph0" class="graph" transform="scale(1 1) rotate(0) translate(4 504.132)">
<title>G</title>
<!-- l0x01 -->
<g id="node1" class="node">
<title>l0x01</title>
<ellipse fill="#ffffff" stroke="#000000" cx="409.598" cy="-482.132" rx="27" ry="18"/>
<text text-anchor="middle" x="409.598" y="-479.032" font-family="Sans" font-size="12.00" fill="#000000">time</text>
</g>
<!-- l0x02 -->
<g id="node2" class="node">
<title>l0x02</title>
<ellipse fill="#ffffff" stroke="#000000" cx="409.598" cy="-428.132" rx="52.3706" ry="18"/>
<text text-anchor="middle" x="409.598" y="-425.032" font-family="Sans" font-size="12.00" fill="#000000">concatenation</text>
</g>
<!-- l0x01&#45;&gt;l0x02 -->
<g id="edge1" class="edge">
<title>l0x01&#45;&gt;l0x02</title>
<path fill="none" stroke="#000000" d="M409.598,-463.8501C409.598,-461.475 409.598,-458.999 409.598,-456.5074"/>
<polygon fill="#000000" stroke="#000000" points="413.0981,-456.3951 409.598,-446.3951 406.0981,-456.3952 413.0981,-456.3951"/>
</g>
<!-- l0x05 -->
<g id="node5" class="node">
<title>l0x05</title>
<ellipse fill="#ffffff" stroke="#000000" cx="359.598" cy="-374.132" rx="52.3706" ry="18"/>
<text text-anchor="middle" x="359.598" y="-371.032" font-family="Sans" font-size="12.00" fill="#000000">concatenation</text>
</g>
<!-- l0x02&#45;&gt;l0x05 -->
<g id="edge2" class="edge">
<title>l0x02&#45;&gt;l0x05</title>
<path fill="none" stroke="#000000" d="M393.5024,-410.7489C390.0232,-406.9912 386.2792,-402.9477 382.5937,-398.9674"/>
<polygon fill="#000000" stroke="#000000" points="385.0256,-396.4423 375.6634,-391.4826 379.8893,-401.1982 385.0256,-396.4423"/>
</g>
<!-- l0x0a -->
<g id="node10" class="node">
<title>l0x0a</title>
<ellipse fill="#ffffff" stroke="#000000" cx="462.598" cy="-374.132" rx="30.1263" ry="18"/>
<text text-anchor="middle" x="462.598" y="-371.032" font-family="Sans" font-size="12.00" fill="#000000">seconds</text>
</g>
<!-- l0x02&#45;&gt;l0x0a -->
<g id="edge9" class="edge">
<title>l0x02&#45;&gt;l0x0a</title>
<path fill="none" stroke="#000000" d="M426.3675,-411.0461C430.7459,-406.585 435.5359,-401.7047 440.1572,-396.9962"/>
<polygon fill="#000000" stroke="#000000" points="442.6902,-399.4121 447.197,-389.8236 437.6944,-394.5088 442.6902,-399.4121"/>
</g>
<!-- l0x03 -->
<g id="node3" class="node">
<title>l0x03</title>
<ellipse fill="#ffffff" stroke="#000000" cx="245.598" cy="-202.4924" rx="27" ry="18"/>
<text text-anchor="middle" x="245.598" y="-199.3924" font-family="Sans" font-size="12.00" fill="#000000">hours</text>
</g>
<!-- l0x0b -->
<g id="node11" class="node">
<title>l0x0b</title>
<ellipse fill="#ffffff" stroke="#000000" cx="245.598" cy="-142.066" rx="38.0086" ry="18"/>
<text text-anchor="middle" x="245.598" y="-138.966" font-family="Sans" font-size="12.00" fill="#000000">two_digits</text>
</g>
<!-- l0x03&#45;&gt;l0x0b -->
<g id="edge10" class="edge">
<title>l0x03&#45;&gt;l0x0b</title>
<path fill="none" stroke="#000000" d="M245.598,-184.3625C245.598,-179.941 245.598,-175.1062 245.598,-170.3361"/>
<polygon fill="#000000" stroke="#000000" points="249.0981,-170.1831 245.598,-160.1831 242.0981,-170.1832 249.0981,-170.1831"/>
</g>
<!-- l0x04 -->
<g id="node4" class="node">
<title>l0x04</title>
<ellipse fill="#ffffff" stroke="#000000" cx="335.598" cy="-202.4924" rx="35.3371" ry="18"/>
<text text-anchor="middle" x="335.598" y="-199.3924" font-family="Sans" font-size="12.00" fill="#000000">separator</text>
</g>
<!-- l0x15 -->
<g id="node21" class="node">
<title>l0x15</title>
<ellipse fill="#ffffff" stroke="#000000" cx="345.598" cy="-142.066" rx="43.6818" ry="21.4286"/>
<text text-anchor="middle" x="345.598" y="-145.466" font-family="Sans" font-size="12.00" fill="#000000">character</text>
<text text-anchor="middle" x="345.598" y="-132.466" font-family="Sans" font-size="12.00" fill="#000000">:</text>
</g>
<!-- l0x04&#45;&gt;l0x15 -->
<g id="edge22" class="edge">
<title>l0x04&#45;&gt;l0x15</title>
<path fill="none" stroke="#000000" d="M338.5983,-184.3625C339.156,-180.9926 339.7534,-177.3826 340.3555,-173.7442"/>
<polygon fill="#000000" stroke="#000000" points="343.8561,-174.0281 342.0358,-163.5908 336.95,-172.8852 343.8561,-174.0281"/>
</g>
<!-- l0x07 -->
<g id="node7" class="node">
<title>l0x07</title>
<ellipse fill="#ffffff" stroke="#000000" cx="245.598" cy="-320.132" rx="52.3706" ry="18"/>
<text text-anchor="middle" x="245.598" y="-317.032" font-family="Sans" font-size="12.00" fill="#000000">concatenation</text>
</g>
<!-- l0x05&#45;&gt;l0x07 -->
<g id="edge3" class="edge">
<title>l0x05&#45;&gt;l0x07</title>
<path fill="none" stroke="#000000" d="M328.7479,-359.5189C315.4413,-353.2157 299.7072,-345.7627 285.5262,-339.0454"/>
<polygon fill="#000000" stroke="#000000" points="287.0084,-335.8747 276.4727,-334.7569 284.0117,-342.2009 287.0084,-335.8747"/>
</g>
<!-- l0x08 -->
<g id="node8" class="node">
<title>l0x08</title>
<ellipse fill="#ffffff" stroke="#000000" cx="359.598" cy="-320.132" rx="35.3371" ry="18"/>
<text text-anchor="middle" x="359.598" y="-317.032" font-family="Sans" font-size="12.00" fill="#000000">separator</text>
</g>
<!-- l0x05&#45;&gt;l0x08 -->
<g id="edge8" class="edge">
<title>l0x05&#45;&gt;l0x08</title>
<path fill="none" stroke="#000000" d="M359.598,-355.8501C359.598,-353.475 359.598,-350.999 359.598,-348.5074"/>
<polygon fill="#000000" stroke="#000000" points="363.0981,-348.3951 359.598,-338.3951 356.0981,-348.3952 363.0981,-348.3951"/>
</g>
<!-- l0x06 -->
<g id="node6" class="node">
<title>l0x06</title>
<ellipse fill="#ffffff" stroke="#000000" cx="143.598" cy="-262.9188" rx="30.1263" ry="18"/>
<text text-anchor="middle" x="143.598" y="-259.8188" font-family="Sans" font-size="12.00" fill="#000000">minutes</text>
</g>
<!-- l0x0c -->
<g id="node12" class="node">
<title>l0x0c</title>
<ellipse fill="#ffffff" stroke="#000000" cx="139.598" cy="-202.4924" rx="38.0086" ry="18"/>
<text text-anchor="middle" x="139.598" y="-199.3924" font-family="Sans" font-size="12.00" fill="#000000">two_digits</text>
</g>
<!-- l0x06&#45;&gt;l0x0c -->
<g id="edge11" class="edge">
<title>l0x06&#45;&gt;l0x0c</title>
<path fill="none" stroke="#000000" d="M142.3978,-244.7889C142.1052,-240.3674 141.7851,-235.5326 141.4694,-230.7626"/>
<polygon fill="#000000" stroke="#000000" points="144.9502,-230.3565 140.7973,-220.6095 137.9655,-230.8189 144.9502,-230.3565"/>
</g>
<!-- l0x07&#45;&gt;l0x06 -->
<g id="edge7" class="edge">
<title>l0x07&#45;&gt;l0x06</title>
<path fill="none" stroke="#000000" d="M217.9953,-304.6493C204.6688,-297.1743 188.6211,-288.1729 174.8468,-280.4467"/>
<polygon fill="#000000" stroke="#000000" points="176.1693,-277.1756 165.7354,-275.336 172.7448,-283.2807 176.1693,-277.1756"/>
</g>
<!-- l0x09 -->
<g id="node9" class="node">
<title>l0x09</title>
<ellipse fill="#ffffff" stroke="#000000" cx="245.598" cy="-262.9188" rx="52.3706" ry="18"/>
<text text-anchor="middle" x="245.598" y="-259.8188" font-family="Sans" font-size="12.00" fill="#000000">concatenation</text>
</g>
<!-- l0x07&#45;&gt;l0x09 -->
<g id="edge4" class="edge">
<title>l0x07&#45;&gt;l0x09</title>
<path fill="none" stroke="#000000" d="M245.598,-302.0294C245.598,-298.5858 245.598,-294.9064 245.598,-291.2334"/>
<polygon fill="#000000" stroke="#000000" points="249.0981,-291.1 245.598,-281.1001 242.0981,-291.1001 249.0981,-291.1"/>
</g>
<!-- l0x16 -->
<g id="node22" class="node">
<title>l0x16</title>
<ellipse fill="#ffffff" stroke="#000000" cx="359.598" cy="-262.9188" rx="43.6818" ry="21.4286"/>
<text text-anchor="middle" x="359.598" y="-266.3188" font-family="Sans" font-size="12.00" fill="#000000">character</text>
<text text-anchor="middle" x="359.598" y="-253.3188" font-family="Sans" font-size="12.00" fill="#000000">:</text>
</g>
<!-- l0x08&#45;&gt;l0x16 -->
<g id="edge23" class="edge">
<title>l0x08&#45;&gt;l0x16</title>
<path fill="none" stroke="#000000" d="M359.598,-302.0294C359.598,-299.5659 359.598,-296.9817 359.598,-294.3655"/>
<polygon fill="#000000" stroke="#000000" points="363.0981,-294.3042 359.598,-284.3043 356.0981,-294.3043 363.0981,-294.3042"/>
</g>
<!-- l0x09&#45;&gt;l0x03 -->
<g id="edge5" class="edge">
<title>l0x09&#45;&gt;l0x03</title>
<path fill="none" stroke="#000000" d="M245.598,-244.7889C245.598,-240.3674 245.598,-235.5326 245.598,-230.7626"/>
<polygon fill="#000000" stroke="#000000" points="249.0981,-230.6095 245.598,-220.6095 242.0981,-230.6096 249.0981,-230.6095"/>
</g>
<!-- l0x09&#45;&gt;l0x04 -->
<g id="edge6" class="edge">
<title>l0x09&#45;&gt;l0x04</title>
<path fill="none" stroke="#000000" d="M269.7163,-246.7257C280.7532,-239.3154 293.9435,-230.4594 305.6124,-222.6249"/>
<polygon fill="#000000" stroke="#000000" points="307.827,-225.3538 314.1783,-216.8737 303.925,-219.5421 307.827,-225.3538"/>
</g>
<!-- l0x0d -->
<g id="node13" class="node">
<title>l0x0d</title>
<ellipse fill="#ffffff" stroke="#000000" cx="469.598" cy="-320.132" rx="38.0086" ry="18"/>
<text text-anchor="middle" x="469.598" y="-317.032" font-family="Sans" font-size="12.00" fill="#000000">two_digits</text>
</g>
<!-- l0x0a&#45;&gt;l0x0d -->
<g id="edge12" class="edge">
<title>l0x0a&#45;&gt;l0x0d</title>
<path fill="none" stroke="#000000" d="M464.9289,-356.1508C465.256,-353.6273 465.5985,-350.9851 465.943,-348.3273"/>
<polygon fill="#000000" stroke="#000000" points="469.4387,-348.5858 467.2534,-338.2188 462.4968,-347.6859 469.4387,-348.5858"/>
</g>
<!-- l0x0e -->
<g id="node14" class="node">
<title>l0x0e</title>
<ellipse fill="#ffffff" stroke="#000000" cx="246.598" cy="-81.6396" rx="52.3706" ry="18"/>
<text text-anchor="middle" x="246.598" y="-78.5396" font-family="Sans" font-size="12.00" fill="#000000">concatenation</text>
</g>
<!-- l0x0b&#45;&gt;l0x0e -->
<g id="edge13" class="edge">
<title>l0x0b&#45;&gt;l0x0e</title>
<path fill="none" stroke="#000000" d="M245.898,-123.9361C245.9712,-119.5146 246.0512,-114.6797 246.1301,-109.9097"/>
<polygon fill="#000000" stroke="#000000" points="249.6321,-109.8133 246.2982,-99.7567 242.6331,-109.6974 249.6321,-109.8133"/>
</g>
<!-- l0x17 -->
<g id="node23" class="node">
<title>l0x17</title>
<ellipse fill="#ffffff" stroke="#000000" cx="136.598" cy="-142.066" rx="52.3706" ry="18"/>
<text text-anchor="middle" x="136.598" y="-138.966" font-family="Sans" font-size="12.00" fill="#000000">concatenation</text>
</g>
<!-- l0x0c&#45;&gt;l0x17 -->
<g id="edge16" class="edge">
<title>l0x0c&#45;&gt;l0x17</title>
<path fill="none" stroke="#000000" d="M138.6979,-184.3625C138.4784,-179.941 138.2383,-175.1062 138.0015,-170.3361"/>
<polygon fill="#000000" stroke="#000000" points="141.4891,-169.9973 137.4974,-160.1831 134.4977,-170.3444 141.4891,-169.9973"/>
</g>
<!-- l0x1a -->
<g id="node24" class="node">
<title>l0x1a</title>
<ellipse fill="#ffffff" stroke="#000000" cx="473.598" cy="-262.9188" rx="52.3706" ry="18"/>
<text text-anchor="middle" x="473.598" y="-259.8188" font-family="Sans" font-size="12.00" fill="#000000">concatenation</text>
</g>
<!-- l0x0d&#45;&gt;l0x1a -->
<g id="edge19" class="edge">
<title>l0x0d&#45;&gt;l0x1a</title>
<path fill="none" stroke="#000000" d="M470.8636,-302.0294C471.1044,-298.5858 471.3616,-294.9064 471.6184,-291.2334"/>
<polygon fill="#000000" stroke="#000000" points="475.1208,-291.3198 472.3269,-281.1001 468.1379,-290.8316 475.1208,-291.3198"/>
</g>
<!-- l0x0f -->
<g id="node15" class="node">
<title>l0x0f</title>
<ellipse fill="#ffffff" stroke="#000000" cx="197.598" cy="-21.2132" rx="39.6962" ry="21.4286"/>
<text text-anchor="middle" x="197.598" y="-24.6132" font-family="Sans" font-size="12.00" fill="#000000">in_range</text>
<text text-anchor="middle" x="197.598" y="-11.6132" font-family="Sans" font-size="12.00" fill="#000000">2</text>
</g>
<!-- l0x0e&#45;&gt;l0x0f -->
<g id="edge14" class="edge">
<title>l0x0e&#45;&gt;l0x0f</title>
<path fill="none" stroke="#000000" d="M232.4251,-64.1618C228.567,-59.404 224.2907,-54.1304 220.0933,-48.9542"/>
<polygon fill="#000000" stroke="#000000" points="222.651,-46.5514 213.6339,-40.9886 217.2139,-50.9603 222.651,-46.5514"/>
</g>
<!-- l0x10 -->
<g id="node16" class="node">
<title>l0x10</title>
<ellipse fill="#ffffff" stroke="#000000" cx="294.598" cy="-21.2132" rx="39.6962" ry="21.4286"/>
<text text-anchor="middle" x="294.598" y="-24.6132" font-family="Sans" font-size="12.00" fill="#000000">in_range</text>
<text text-anchor="middle" x="294.598" y="-11.6132" font-family="Sans" font-size="12.00" fill="#000000">2</text>
</g>
<!-- l0x0e&#45;&gt;l0x10 -->
<g id="edge15" class="edge">
<title>l0x0e&#45;&gt;l0x10</title>
<path fill="none" stroke="#000000" d="M260.4816,-64.1618C264.261,-59.404 268.4501,-54.1304 272.5618,-48.9542"/>
<polygon fill="#000000" stroke="#000000" points="275.4099,-50.9958 278.8893,-40.9886 269.9287,-46.6418 275.4099,-50.9958"/>
</g>
<!-- l0x11 -->
<g id="node17" class="node">
<title>l0x11</title>
<ellipse fill="#ffffff" stroke="#000000" cx="39.598" cy="-81.6396" rx="39.6962" ry="21.4286"/>
<text text-anchor="middle" x="39.598" y="-85.0396" font-family="Sans" font-size="12.00" fill="#000000">in_range</text>
<text text-anchor="middle" x="39.598" y="-72.0396" font-family="Sans" font-size="12.00" fill="#000000">3</text>
</g>
<!-- l0x12 -->
<g id="node18" class="node">
<title>l0x12</title>
<ellipse fill="#ffffff" stroke="#000000" cx="136.598" cy="-81.6396" rx="39.6962" ry="21.4286"/>
<text text-anchor="middle" x="136.598" y="-85.0396" font-family="Sans" font-size="12.00" fill="#000000">in_range</text>
<text text-anchor="middle" x="136.598" y="-72.0396" font-family="Sans" font-size="12.00" fill="#000000">4</text>
</g>
<!-- l0x13 -->
<g id="node19" class="node">
<title>l0x13</title>
<ellipse fill="#ffffff" stroke="#000000" cx="450.598" cy="-202.4924" rx="39.6962" ry="21.4286"/>
<text text-anchor="middle" x="450.598" y="-205.8924" font-family="Sans" font-size="12.00" fill="#000000">in_range</text>
<text text-anchor="middle" x="450.598" y="-192.8924" font-family="Sans" font-size="12.00" fill="#000000">0</text>
</g>
<!-- l0x14 -->
<g id="node20" class="node">
<title>l0x14</title>
<ellipse fill="#ffffff" stroke="#000000" cx="547.598" cy="-202.4924" rx="39.6962" ry="21.4286"/>
<text text-anchor="middle" x="547.598" y="-205.8924" font-family="Sans" font-size="12.00" fill="#000000">in_range</text>
<text text-anchor="middle" x="547.598" y="-192.8924" font-family="Sans" font-size="12.00" fill="#000000">6</text>
</g>
<!-- l0x17&#45;&gt;l0x11 -->
<g id="edge17" class="edge">
<title>l0x17&#45;&gt;l0x11</title>
<path fill="none" stroke="#000000" d="M111.1124,-126.1897C99.8203,-119.1552 86.3613,-110.771 74.1816,-103.1836"/>
<polygon fill="#000000" stroke="#000000" points="75.9267,-100.1471 65.5882,-97.8303 72.2254,-106.0886 75.9267,-100.1471"/>
</g>
<!-- l0x17&#45;&gt;l0x12 -->
<g id="edge18" class="edge">
<title>l0x17&#45;&gt;l0x12</title>
<path fill="none" stroke="#000000" d="M136.598,-123.9361C136.598,-120.5662 136.598,-116.9562 136.598,-113.3178"/>
<polygon fill="#000000" stroke="#000000" points="140.0981,-113.1644 136.598,-103.1644 133.0981,-113.1644 140.0981,-113.1644"/>
</g>
<!-- l0x1a&#45;&gt;l0x13 -->
<g id="edge20" class="edge">
<title>l0x1a&#45;&gt;l0x13</title>
<path fill="none" stroke="#000000" d="M466.6972,-244.7889C465.3079,-241.1387 463.8113,-237.2068 462.3099,-233.2623"/>
<polygon fill="#000000" stroke="#000000" points="465.4545,-231.685 458.6261,-223.5842 458.9124,-234.1752 465.4545,-231.685"/>
</g>
<!-- l0x1a&#45;&gt;l0x14 -->
<g id="edge21" class="edge">
<title>l0x1a&#45;&gt;l0x14</title>
<path fill="none" stroke="#000000" d="M494.2111,-246.0867C501.5882,-240.0628 510.0544,-233.1495 518.0384,-226.63"/>
<polygon fill="#000000" stroke="#000000" points="520.2716,-229.3251 525.8036,-220.2891 515.8441,-223.9031 520.2716,-229.3251"/>
</g>
</g>
</svg>
